<?xml version="1.0" encoding="UTF-8" standalone="no"?>
<!-- Created with Inkscape (http://www.inkscape.org/) -->

<svg
   xmlns:dc="http://purl.org/dc/elements/1.1/"
   xmlns:cc="http://creativecommons.org/ns#"
   xmlns:rdf="http://www.w3.org/1999/02/22-rdf-syntax-ns#"
   xmlns:svg="http://www.w3.org/2000/svg"
   xmlns="http://www.w3.org/2000/svg"
   xmlns:xlink="http://www.w3.org/1999/xlink"
   xmlns:sodipodi="http://sodipodi.sourceforge.net/DTD/sodipodi-0.dtd"
   xmlns:inkscape="http://www.inkscape.org/namespaces/inkscape"
   width="64"
   height="64"
   viewBox="0 0 16.933333 16.933334"
   version="1.1"
   id="svg8"
   inkscape:version="0.92.4 5da689c313, 2019-01-14"
   sodipodi:docname="favicon.svg">
  <defs
     id="defs2">
    <linearGradient
       inkscape:collect="always"
       id="linearGradient9019">
      <stop
         style="stop-color:#000000;stop-opacity:1;"
         offset="0"
         id="stop9015" />
      <stop
         style="stop-color:#000000;stop-opacity:0;"
         offset="1"
         id="stop9017" />
    </linearGradient>
    <linearGradient
       inkscape:collect="always"
       xlink:href="#linearGradient9019"
       id="linearGradient9021"
       x1="4.6901531"
       y1="283.93719"
       x2="20.560543"
       y2="299.80759"
       gradientUnits="userSpaceOnUse"
       gradientTransform="matrix(3.7795276,0,0,3.7795276,0,-1058.5196)" />
  </defs>
  <sodipodi:namedview
     id="base"
     pagecolor="#ffffff"
     bordercolor="#666666"
     borderopacity="1.0"
     inkscape:pageopacity="0.0"
     inkscape:pageshadow="2"
     inkscape:zoom="12.566667"
     inkscape:cx="44.285714"
     inkscape:cy="7.5055135"
     inkscape:document-units="mm"
     inkscape:current-layer="layer1"
     showgrid="false"
     units="px"
     inkscape:window-width="2736"
     inkscape:window-height="1750"
     inkscape:window-x="0"
     inkscape:window-y="0"
     inkscape:window-maximized="1" />
  <metadata
     id="metadata5">
    <rdf:RDF>
      <cc:Work
         rdf:about="">
        <dc:format>image/svg+xml</dc:format>
        <dc:type
           rdf:resource="http://purl.org/dc/dcmitype/StillImage" />
        <dc:title></dc:title>
      </cc:Work>
    </rdf:RDF>
  </metadata>
  <g
     inkscape:label="Layer 1"
     inkscape:groupmode="layer"
     id="layer1"
     transform="translate(0,-280.06665)">
    <circle
       style="opacity:0.975;fill:#1a73e8;fill-opacity:1;fill-rule:nonzero;stroke:none;stroke-width:0.1;stroke-miterlimit:4;stroke-dasharray:none;stroke-opacity:1"
       id="path815"
       cx="8.4666662"
       cy="288.53333"
       r="8.2848969" />
    <path
       style="opacity:0.419;fill:url(#linearGradient9021);fill-opacity:1;fill-rule:nonzero;stroke:none;stroke-width:0.37795275;stroke-miterlimit:4;stroke-dasharray:none;stroke-opacity:1"
       d="M 17.726562 14.628906 L 33.167969 31.976562 L 17.726562 49.371094 L 17.964844 49.371094 L 17.851562 49.498047 L 18.089844 49.498047 L 17.978516 49.623047 L 18.216797 49.623047 L 18.103516 49.75 L 18.341797 49.75 L 18.230469 49.875 L 18.46875 49.875 L 18.355469 50.001953 L 18.59375 50.001953 L 18.482422 50.126953 L 18.720703 50.126953 L 18.607422 50.253906 L 18.845703 50.253906 L 18.734375 50.378906 L 18.972656 50.378906 L 18.859375 50.505859 L 19.097656 50.505859 L 18.986328 50.630859 L 19.224609 50.630859 L 19.111328 50.757812 L 19.349609 50.757812 L 19.238281 50.882812 L 19.474609 50.882812 L 19.363281 51.007812 L 19.601562 51.007812 L 19.488281 51.136719 L 19.726562 51.136719 L 19.615234 51.261719 L 19.851562 51.261719 L 19.740234 51.386719 L 19.978516 51.386719 L 19.865234 51.513672 L 20.103516 51.513672 L 19.992188 51.638672 L 20.228516 51.638672 L 20.117188 51.763672 L 20.355469 51.763672 L 20.242188 51.890625 L 20.478516 51.890625 L 20.367188 52.015625 L 20.605469 52.015625 L 20.494141 52.140625 L 20.730469 52.140625 L 20.619141 52.265625 L 20.857422 52.265625 L 20.744141 52.392578 L 20.980469 52.392578 L 20.869141 52.517578 L 21.105469 52.517578 L 20.994141 52.642578 L 21.232422 52.642578 L 21.121094 52.767578 L 21.357422 52.767578 L 21.246094 52.892578 L 21.482422 52.892578 L 21.371094 53.017578 L 21.607422 53.017578 L 21.496094 53.142578 L 21.734375 53.142578 L 21.621094 53.269531 L 21.857422 53.269531 L 21.746094 53.394531 L 21.982422 53.394531 L 21.871094 53.519531 L 22.107422 53.519531 L 21.996094 53.644531 L 22.232422 53.644531 L 22.121094 53.769531 L 22.357422 53.769531 L 22.246094 53.896484 L 22.482422 53.896484 L 22.371094 54.021484 L 22.607422 54.021484 L 22.496094 54.146484 L 22.732422 54.146484 L 22.621094 54.271484 L 22.855469 54.271484 L 22.746094 54.394531 L 22.982422 54.394531 L 22.871094 54.519531 L 23.107422 54.519531 L 22.996094 54.644531 L 23.232422 54.644531 L 23.121094 54.769531 L 23.355469 54.769531 L 23.244141 54.894531 L 23.480469 54.894531 L 23.369141 55.019531 L 23.605469 55.019531 L 23.494141 55.144531 L 23.728516 55.144531 L 23.619141 55.267578 L 23.855469 55.267578 L 23.744141 55.392578 L 23.978516 55.392578 L 23.867188 55.517578 L 24.103516 55.517578 L 23.992188 55.642578 L 24.226562 55.642578 L 24.117188 55.765625 L 24.353516 55.765625 L 24.242188 55.890625 L 24.476562 55.890625 L 24.365234 56.015625 L 24.599609 56.015625 L 24.490234 56.138672 L 24.726562 56.138672 L 24.615234 56.263672 L 24.849609 56.263672 L 24.738281 56.388672 L 24.972656 56.388672 L 24.863281 56.511719 L 25.097656 56.511719 L 24.986328 56.636719 L 25.222656 56.636719 L 25.111328 56.761719 L 25.345703 56.761719 L 25.236328 56.884766 L 25.470703 56.884766 L 25.359375 57.009766 L 25.59375 57.009766 L 25.484375 57.134766 L 25.71875 57.134766 L 25.607422 57.259766 L 25.841797 57.259766 L 25.732422 57.380859 L 25.966797 57.380859 L 25.855469 57.507812 L 26.087891 57.507812 L 25.978516 57.628906 L 26.212891 57.628906 L 26.103516 57.753906 L 26.337891 57.753906 L 26.226562 57.878906 L 26.460938 57.878906 L 26.351562 58.001953 L 26.585938 58.001953 L 26.474609 58.126953 L 26.707031 58.126953 L 26.597656 58.25 L 26.832031 58.25 L 26.722656 58.373047 L 26.957031 58.373047 L 26.845703 58.498047 L 27.078125 58.498047 L 26.96875 58.621094 L 27.203125 58.621094 L 27.09375 58.744141 L 27.326172 58.744141 L 27.216797 58.867188 L 27.451172 58.867188 L 27.339844 58.992188 L 27.572266 58.992188 L 27.462891 59.115234 L 27.697266 59.115234 L 27.587891 59.238281 L 27.820312 59.238281 L 27.710938 59.361328 L 27.943359 59.361328 L 27.833984 59.484375 L 28.068359 59.484375 L 27.957031 59.609375 L 28.189453 59.609375 L 28.080078 59.732422 L 28.3125 59.732422 L 28.203125 59.855469 L 28.435547 59.855469 L 28.326172 59.978516 L 28.558594 59.978516 L 28.449219 60.101562 L 28.681641 60.101562 L 28.572266 60.224609 L 28.804688 60.224609 L 28.695312 60.347656 L 28.927734 60.347656 L 28.818359 60.470703 L 29.050781 60.470703 L 28.941406 60.59375 L 29.173828 60.59375 L 29.064453 60.716797 L 29.296875 60.716797 L 29.1875 60.839844 L 29.419922 60.839844 L 29.310547 60.962891 L 29.542969 60.962891 L 29.433594 61.085938 L 29.666016 61.085938 L 29.556641 61.208984 L 29.787109 61.208984 L 29.679688 61.330078 L 29.912109 61.330078 L 29.802734 61.453125 L 30.033203 61.453125 L 29.923828 61.576172 L 30.15625 61.576172 L 30.046875 61.699219 L 30.279297 61.699219 L 30.169922 61.822266 L 30.400391 61.822266 L 30.292969 61.943359 L 30.523438 61.943359 L 30.414062 62.066406 L 30.646484 62.066406 L 30.537109 62.191406 L 30.767578 62.191406 L 30.660156 62.310547 L 30.892578 62.310547 L 30.783203 62.435547 L 31.013672 62.435547 L 30.904297 62.558594 L 31.134766 62.558594 L 31.027344 62.679688 L 31.257812 62.679688 L 31.148438 62.802734 L 31.380859 62.802734 L 31.271484 62.925781 L 31.501953 62.925781 L 31.394531 63.046875 L 31.625 63.046875 L 31.515625 63.169922 L 31.746094 63.169922 L 31.638672 63.291016 L 31.869141 63.291016 L 31.855469 63.304688 A 31.312996 31.312996 0 0 0 32 63.3125 A 31.312996 31.312996 0 0 0 63.3125 32 A 31.312996 31.312996 0 0 0 63.302734 31.710938 L 63.222656 31.710938 L 63.222656 31.589844 L 63.101562 31.589844 L 63.101562 31.46875 L 62.980469 31.46875 L 62.980469 31.347656 L 62.859375 31.347656 L 62.859375 31.226562 L 62.738281 31.226562 L 62.738281 31.105469 L 62.617188 31.105469 L 62.617188 30.984375 L 62.496094 30.984375 L 62.496094 30.865234 L 62.375 30.865234 L 62.375 30.744141 L 62.253906 30.744141 L 62.253906 30.623047 L 62.132812 30.623047 L 62.132812 30.5 L 62.011719 30.5 L 62.011719 30.378906 L 61.888672 30.378906 L 61.888672 30.257812 L 61.767578 30.257812 L 61.767578 30.136719 L 61.646484 30.136719 L 61.646484 30.015625 L 61.525391 30.015625 L 61.525391 29.892578 L 61.404297 29.892578 L 61.404297 29.771484 L 61.28125 29.771484 L 61.28125 29.650391 L 61.160156 29.650391 L 61.160156 29.527344 L 61.039062 29.527344 L 61.039062 29.40625 L 60.916016 29.40625 L 60.916016 29.285156 L 60.794922 29.285156 L 60.794922 29.162109 L 60.671875 29.162109 L 60.671875 29.041016 L 60.550781 29.041016 L 60.550781 28.919922 L 60.429688 28.919922 L 60.429688 28.796875 L 60.306641 28.796875 L 60.306641 28.675781 L 60.185547 28.675781 L 60.185547 28.552734 L 60.0625 28.552734 L 60.0625 28.431641 L 59.941406 28.431641 L 59.941406 28.308594 L 59.818359 28.308594 L 59.818359 28.1875 L 59.695312 28.1875 L 59.695312 28.064453 L 59.574219 28.064453 L 59.574219 27.941406 L 59.451172 27.941406 L 59.451172 27.820312 L 59.330078 27.820312 L 59.330078 27.697266 L 59.207031 27.697266 L 59.207031 27.574219 L 59.083984 27.574219 L 59.083984 27.453125 L 58.960938 27.453125 L 58.960938 27.330078 L 58.839844 27.330078 L 58.839844 27.207031 L 58.716797 27.207031 L 58.716797 27.085938 L 58.59375 27.085938 L 58.59375 26.962891 L 58.470703 26.962891 L 58.470703 26.839844 L 58.349609 26.839844 L 58.349609 26.716797 L 58.226562 26.716797 L 58.226562 26.59375 L 58.103516 26.59375 L 58.103516 26.472656 L 57.980469 26.472656 L 57.980469 26.349609 L 57.857422 26.349609 L 57.857422 26.226562 L 57.734375 26.226562 L 57.734375 26.101562 L 57.611328 26.101562 L 57.611328 25.980469 L 57.488281 25.980469 L 57.488281 25.855469 L 57.365234 25.855469 L 57.365234 25.732422 L 57.242188 25.732422 L 57.242188 25.611328 L 57.119141 25.611328 L 57.119141 25.486328 L 56.996094 25.486328 L 56.996094 25.365234 L 56.873047 25.365234 L 56.873047 25.240234 L 56.75 25.240234 L 56.75 25.117188 L 56.626953 25.117188 L 56.626953 24.994141 L 56.503906 24.994141 L 56.503906 24.871094 L 56.380859 24.871094 L 56.380859 24.746094 L 56.257812 24.746094 L 56.257812 24.623047 L 56.134766 24.623047 L 56.134766 24.5 L 56.009766 24.5 L 56.009766 24.376953 L 55.886719 24.376953 L 55.886719 24.253906 L 55.763672 24.253906 L 55.763672 24.128906 L 55.640625 24.128906 L 55.640625 24.005859 L 55.515625 24.005859 L 55.515625 23.882812 L 55.392578 23.882812 L 55.392578 23.759766 L 55.269531 23.759766 L 55.269531 23.634766 L 55.144531 23.634766 L 55.144531 23.511719 L 55.021484 23.511719 L 55.021484 23.388672 L 54.898438 23.388672 L 54.898438 23.263672 L 54.773438 23.263672 L 54.773438 23.140625 L 54.650391 23.140625 L 54.650391 23.015625 L 54.525391 23.015625 L 54.525391 22.892578 L 54.402344 22.892578 L 54.402344 22.769531 L 54.279297 22.769531 L 54.279297 22.644531 L 54.154297 22.644531 L 54.154297 22.521484 L 54.03125 22.521484 L 54.03125 22.396484 L 53.90625 22.396484 L 53.90625 22.273438 L 53.783203 22.273438 L 53.783203 22.148438 L 53.658203 22.148438 L 53.658203 22.025391 L 53.533203 22.025391 L 53.533203 21.900391 L 53.410156 21.900391 L 53.410156 21.775391 L 53.285156 21.775391 L 53.285156 21.650391 L 53.162109 21.650391 L 53.162109 21.525391 L 53.037109 21.525391 L 53.037109 21.400391 L 52.912109 21.400391 L 52.912109 21.277344 L 52.789062 21.277344 L 52.789062 21.152344 L 52.664062 21.152344 L 52.664062 21.027344 L 52.539062 21.027344 L 52.539062 20.904297 L 52.414062 20.904297 L 52.414062 20.779297 L 52.291016 20.779297 L 52.291016 20.654297 L 52.166016 20.654297 L 52.166016 20.529297 L 52.041016 20.529297 L 52.041016 20.40625 L 51.916016 20.40625 L 51.916016 20.28125 L 51.791016 20.28125 L 51.791016 20.15625 L 51.667969 20.15625 L 51.667969 20.03125 L 51.542969 20.03125 L 51.542969 19.90625 L 51.417969 19.90625 L 51.417969 19.78125 L 51.292969 19.78125 L 51.292969 19.65625 L 51.167969 19.65625 L 51.167969 19.53125 L 51.042969 19.53125 L 51.042969 19.40625 L 50.917969 19.40625 L 50.917969 19.28125 L 50.792969 19.28125 L 50.792969 19.15625 L 50.667969 19.15625 L 50.667969 19.03125 L 50.542969 19.03125 L 50.542969 18.90625 L 50.417969 18.90625 L 50.417969 18.78125 L 50.292969 18.78125 L 50.292969 18.65625 L 50.167969 18.65625 L 50.167969 18.529297 L 50.042969 18.529297 L 50.042969 18.404297 L 49.917969 18.404297 L 49.917969 18.279297 L 49.792969 18.279297 L 49.792969 18.154297 L 49.667969 18.154297 L 49.667969 18.029297 L 49.541016 18.029297 L 49.541016 17.904297 L 49.416016 17.904297 L 49.416016 17.779297 L 49.291016 17.779297 L 49.291016 17.654297 L 49.166016 17.654297 L 49.166016 17.527344 L 49.041016 17.527344 L 49.041016 17.402344 L 48.914062 17.402344 L 48.914062 17.277344 L 48.789062 17.277344 L 48.789062 17.152344 L 48.664062 17.152344 L 48.664062 17.025391 L 48.539062 17.025391 L 48.539062 16.898438 L 48.412109 16.898438 L 48.412109 16.773438 L 48.287109 16.773438 L 48.287109 16.646484 L 48.162109 16.646484 L 48.162109 16.521484 L 48.035156 16.521484 L 48.035156 16.396484 L 47.910156 16.396484 L 47.910156 16.269531 L 47.785156 16.269531 L 47.785156 16.144531 L 47.658203 16.144531 L 47.658203 16.019531 L 47.533203 16.019531 L 47.533203 15.892578 L 47.40625 15.892578 L 47.40625 15.767578 L 47.28125 15.767578 L 47.28125 15.640625 L 47.154297 15.640625 L 47.154297 15.515625 L 47.029297 15.515625 L 47.029297 15.388672 L 46.902344 15.388672 L 46.902344 15.263672 L 46.777344 15.263672 L 46.777344 15.136719 L 46.650391 15.136719 L 46.650391 15.011719 L 46.525391 15.011719 L 46.525391 14.884766 L 46.398438 14.884766 L 46.398438 14.759766 L 46.273438 14.759766 L 46.273438 14.632812 L 17.726562 14.628906 z "
       transform="matrix(0.26458333,0,0,0.26458333,0,280.06665)"
       id="path7409" />
    <path
       style="opacity:0.975;fill:#ffffff;fill-opacity:1;fill-rule:nonzero;stroke:none;stroke-width:0.1;stroke-miterlimit:4;stroke-dasharray:none;stroke-opacity:1"
       d="m 4.690153,283.93721 4.0855388,4.5899 -4.0855388,4.60231 h 7.553027 v -2.04277 h -0.756543 v 0.88263 H 6.6822796 l 3.4044434,-3.84576 -2.8871624,-3.42976 h 4.2870764 v 1.28622 h 0.756543 v -2.04277 z"
       id="rect865"
       inkscape:connector-curvature="0" />
  </g>
</svg>
