<?xml version="1.0" encoding="UTF-8" standalone="no"?>
<svg
   xmlns:dc="http://purl.org/dc/elements/1.1/"
   xmlns:cc="http://creativecommons.org/ns#"
   xmlns:rdf="http://www.w3.org/1999/02/22-rdf-syntax-ns#"
   xmlns:svg="http://www.w3.org/2000/svg"
   xmlns="http://www.w3.org/2000/svg"
   width="193.71342mm"
   height="193.71342mm"
   viewBox="0 0 193.71343 193.71342"
   version="1.1"
   id="svg8">
  <defs
     id="defs2" />
  <metadata
     id="metadata5">
    <rdf:RDF>
      <cc:Work
         rdf:about="">
        <dc:format>image/svg+xml</dc:format>
        <dc:type
           rdf:resource="http://purl.org/dc/dcmitype/StillImage" />
        <dc:title></dc:title>
      </cc:Work>
    </rdf:RDF>
  </metadata>
  <g
     style="fill:#ffffff"
     id="layer1"
     transform="translate(-1.4523954,24.883048)">
    <path
       style="fill:#ffffff;stroke-width:0.26458332"
       d="m 147.40444,5.202563 c 4.65359,0 8.4,3.879924 8.4,8.699726 V 125.01437 c 0,3.32865 -1.78757,6.20823 -4.42609,7.67188 -0.90287,1.00243 -1.90272,1.84947 -2.95744,2.46032 l -52.741995,30.54645 c -4.02697,2.33227 -7.2688,0.32964 -7.2688,-4.49016 V 133.7141 H 56.103559 c -4.65359,0 -8.4,-3.87993 -8.4,-8.69973 V 91.223149 h 9.62163 v 26.165331 c 0,4.15822 3.079286,7.506 6.904486,7.506 h 24.18044 V 53.870392 c 0,-4.8198 3.24183,-10.577542 7.2688,-12.909806 L 141.50454,14.420604 c -0.69818,-0.256884 -1.44623,-0.398425 -2.22622,-0.398425 H 64.229675 c -3.8252,0 -6.904486,3.347775 -6.904486,7.506002 v 24.2595 h -9.62163 V 13.902289 c 0,-4.819802 3.74641,-8.699726 8.4,-8.699726 z M 37.040639,38.26721 V 54.088983 H 79.177085 V 83.221572 H 37.040639 V 98.776178 L 20.599269,83.648935 4.1578886,68.521693 20.599269,53.394452 Z"
       id="rect167" />
  </g>
</svg>
